<?xml version="1.0" encoding="UTF-8" standalone="no"?><!DOCTYPE svg PUBLIC "-//W3C//DTD SVG 1.1//EN"
    "http://www.w3.org/Graphics/SVG/1.1/DTD/svg11.dtd">
<svg width="100%" height="100%" viewBox="0 0 567 448" version="1.1"
    xmlns="http://www.w3.org/2000/svg" xml:space="preserve"
    style="fill-rule:evenodd;clip-rule:evenodd;stroke-linejoin:round;stroke-miterlimit:2;">
    <g transform="matrix(1,0,0,1,-311.82,-371.405)">
        <g>
            <g>
                <path
                    d="M857.63,629.99C851.18,629 844.73,628.13 838.24,627.3C820.62,624.98 803.96,622.79 787.83,617.95C775.55,614.27 760.83,608.52 748.88,600C786.8,602.15 824.89,601.36 842.3,585.15C848.59,579.32 851.89,571.75 851.89,563.27C851.89,540.4 799.99,487.35 755.79,480.19C753.31,479.78 750.54,479.49 747.6,479.4C731.6,440.65 703.68,405.96 666.55,378.79C662.7,375.98 652.49,368.53 641.16,372.59C629.87,376.64 624.62,389.83 628.13,405.38C634.5,433.54 652.53,454.01 666.55,466.17C678.05,476.18 691.32,484.9 708.28,493.38C701.13,499.79 694.43,508.93 688.88,521.75C584.8,481.51 520.24,536.39 480.34,581.96C479.47,582.95 478.64,583.9 477.78,584.85C474.47,582.99 470.38,580.38 465.58,577.12L463.26,575.55C452.51,568.35 442.34,565.75 432.99,567.69C425.22,569.34 418.48,574.31 414.05,581.67C409.09,589.9 407.64,600.11 410.2,609.09C413.01,618.97 419.92,627.57 429.47,633.57L429.47,633.61C394.44,664.79 365.17,682.53 345.15,694.61C323.65,707.64 311.82,714.83 311.82,727.86C311.82,740.27 317.86,746.43 322.94,749.45C327.24,751.97 332.49,753.17 338.7,753.17C367.07,753.17 414.5,728.61 471.73,697.26C482.9,691.14 493.4,685.39 501.67,681.13C549.27,656.73 604.68,631.38 660.63,639.28C682.26,642.34 702.64,650.2 724.23,658.47C735.31,662.69 746.73,667.07 758.3,670.75C802.46,684.73 840.43,682.95 868.01,665.54C870.41,664.01 877.69,659.42 878.64,650.82C879.79,640.29 871.56,632.14 857.63,629.99ZM680.1,450.6C668.44,440.43 653.43,423.56 648.3,400.81C647.35,396.63 647.8,393.37 648.34,392.17C649.04,392.29 650.82,392.91 654.34,395.52C685.48,418.26 709.5,446.67 724.52,478.31C705.7,469.46 691.72,460.74 680.1,450.6ZM431.73,592.36C432.56,591 434.42,588.56 437.27,587.98C440.87,587.19 445.91,588.85 451.79,592.78L453.94,594.23C457.16,596.42 460.35,598.57 463.49,600.47C457.37,606.96 451.33,613 445.46,618.71C438.93,615.9 432.19,610.77 430.08,603.45C429.09,599.97 429.71,595.71 431.73,592.36ZM764.54,651.04C753.54,647.57 742.42,643.31 731.62,639.17C709.91,630.82 687.45,622.22 663.51,618.82C604.5,610.47 546.32,634.99 492.23,662.74C483.71,667.12 473.04,672.95 461.8,679.12C428.06,697.6 349.07,740.94 333.48,731.68C332.78,731.27 332.53,729.82 332.49,728.5C334.56,725.23 345.85,718.41 355.85,712.33C377.81,699.01 410.56,679.21 449.8,643.02C453.44,639.67 457.16,636.2 460.92,632.52C468.28,625.37 475.89,617.59 483.66,609.2C485.77,606.88 487.92,604.53 490.11,602.13C492.01,599.98 493.96,597.83 495.9,595.6C535.89,549.95 594.15,502.89 690.63,544.86L701.01,549.41L704.57,538.66C710.48,520.84 718.59,509.26 729.13,503.76C735.25,500.58 742.12,499.46 749.85,500.29C787.07,504.38 829.99,551.86 831.19,563.31C831.19,566.08 830.32,568.11 828.21,570.05C812.95,584.19 756.63,580.02 732.56,578.24C729.29,577.99 726.36,577.79 723.75,577.62L704.07,576.34L714.24,593.25C728.88,617.69 759.11,630.92 781.85,637.79C799.59,643.08 817.87,645.48 835.53,647.84C841.44,648.58 847.36,649.37 853.27,650.28C825.58,665.27 790.01,659.11 764.54,651.04Z"
                    style="fill:rgb(48,43,120);fill-rule:nonzero;" />
            </g>
            <g>
                <path
                    d="M509.62,771.03C508.84,771.03 508.31,771.75 507.89,772.46L506.18,775.37C503.88,779.81 500.66,785.14 496.62,791.16C493.45,795.34 490.2,798.14 486.98,799.49C482.43,801.39 479.08,801.93 476.82,801.26C472.74,799.95 470.52,797.85 470.02,794.84C469.47,791.54 469.19,788.99 469.19,787.26C469.19,784.32 469.57,781.15 470.33,777.82C471.52,778.73 473.05,779.24 474.9,779.36C477.21,779.51 478.59,779.59 479,779.59C482.97,779.59 487.1,778.34 491.27,775.86C495.96,773.05 499.35,767.72 501.36,759.98C501.75,758.2 501.94,756.43 501.94,754.73C501.94,752.24 501.51,749.75 500.65,747.35C499.24,743.29 496.69,739.89 493.07,737.24C489.44,734.58 484.85,733.24 479.43,733.24C473.27,733.24 467.73,734.94 462.95,738.3C458.22,741.62 454.24,745.96 451.12,751.21C448.02,756.43 445.81,761.79 444.56,767.13C443.32,772.45 442.68,777.37 442.68,781.76C442.68,789.37 444.23,795.95 447.32,801.35C450.65,806.62 454.75,809.95 459.49,811.24C464.08,812.49 468.1,813.13 471.47,813.13C474.23,813.13 477.05,812.82 479.88,812.21C486.15,810.76 491.55,807.96 495.93,803.88C499.34,800.54 502.38,796.51 504.95,791.89C508.52,785.73 510.6,779.49 511.14,773.23C511.15,771.25 510.08,771.03 509.62,771.03ZM473.02,769.29C473.38,768.28 473.79,767.29 474.28,766.32C476.03,762.24 478.05,758.85 480.29,756.25C482.44,753.75 484.5,752.35 486.24,752.1C487.43,752.16 488.15,752.71 488.58,753.88C489.1,755.3 489.36,756.57 489.36,757.64C489.36,761.73 487.67,764.77 484.19,766.93C481.75,768.54 478.46,769.35 474.42,769.35L473.02,769.29Z"
                    style="fill:rgb(48,43,120);fill-rule:nonzero;" />
                <path
                    d="M543.33,722.82C551.56,723.26 560.29,723.99 569.27,724.98C583.27,726.42 593.85,727.15 600.7,727.15C604.54,727.15 608.12,726.96 611.35,726.58C616.86,725.87 620.86,724.13 623.27,721.38C625.32,718.8 626.36,715.71 626.36,712.22C626.36,710.33 626.06,708.33 625.48,706.26C625.42,706.05 625.27,705.86 625.07,705.76C624.87,705.66 624.64,705.64 624.43,705.72C615.64,708.87 608.45,710.47 603.05,710.47L593.73,710.47C584.06,710.47 574.21,710.03 564.43,709.15C556.6,708.46 548.95,708.02 541.66,707.83C530.38,707.96 522.25,710.54 517.5,715.52C512.76,720.49 510.36,725.71 510.36,731.05C510.36,732.99 510.62,735.02 511.14,737.08C511.23,737.43 511.53,737.68 511.89,737.69L511.93,737.69C512.27,737.69 512.58,737.47 512.69,737.15C514.31,732.47 517.32,728.89 521.64,726.49C526.02,724.06 532.47,722.83 540.83,722.83L543.33,722.82Z"
                    style="fill:rgb(48,43,120);fill-rule:nonzero;" />
                <path
                    d="M593.87,732.02C593.83,731.81 593.7,731.62 593.52,731.5C591.13,729.95 588.47,728.83 585.63,728.19C582.81,727.55 580.44,727.23 578.58,727.23C576.97,727.23 575.36,727.39 573.81,727.72C570.29,728.4 567.78,730.32 566.33,733.5C565.32,736.2 563.57,741.96 561.13,750.59C558.51,759.5 555.57,769.2 552.38,779.43C549.2,789.61 546.18,797.93 543.38,804.14C541.06,809.25 539.55,810.33 538.86,810.52C537.11,811 536.35,811.1 536.02,811.1C533.92,811.1 531.27,810.16 528.15,808.3C527.83,808.11 527.43,808.16 527.16,808.42C526.9,808.68 526.85,809.09 527.04,809.41C528.93,812.54 531.58,814.97 534.9,816.63C538.2,818.28 541.36,819.12 544.3,819.12L544.34,819.12L546.53,819.01C550.57,818.23 554.28,816.07 557.55,812.6C560.75,809.21 563.6,805.14 566.01,800.51C568.4,795.92 570.44,791.26 572.08,786.68C573.7,782.38 575.44,777.4 577.27,771.87C579.7,764.44 582.34,757.05 585.12,749.88C587.87,742.76 590.77,736.96 593.74,732.63C593.87,732.46 593.91,732.23 593.87,732.02Z"
                    style="fill:rgb(48,43,120);fill-rule:nonzero;" />
                <path
                    d="M653.96,741.52C652.5,738.53 649.97,737.02 646.45,737.02L645.26,737.03C640.92,737.87 636.75,740.19 632.85,743.92C629.02,747.59 625.56,751.75 622.57,756.3C620.48,759.47 618.67,762.4 617.17,765.07C620.4,756.19 624.26,749.09 628.7,743.91C628.85,743.73 628.92,743.5 628.89,743.28C628.86,743.05 628.73,742.85 628.54,742.72C626.14,741.1 623.45,739.95 620.54,739.3C617.67,738.66 615.2,738.34 613.21,738.34C611.67,738.34 610.14,738.47 608.64,738.73C605.06,739.41 602.51,741.34 601.09,744.47C599.2,748.76 597.36,754.39 595.63,761.21C593.9,768.04 592.97,773.36 592.87,777.01C592.78,780.63 592.73,782.57 592.73,782.82C592.73,789.47 594.16,795.19 597,799.83C598.03,801.41 599.53,802.6 601.47,803.39C603.38,804.16 604.91,804.53 606.15,804.53C607.69,804.53 609.29,804.19 610.89,803.53C611.15,803.42 611.33,803.19 611.38,802.92C612.74,795 615.17,787.53 618.6,780.69C622.04,773.84 625.55,768.25 629.04,764.09C633.46,758.81 635.35,758.02 636.01,758.02C636.56,758.08 638.02,758.23 638.02,761.45C638.02,764.79 636.31,767.72 632.78,770.41C632.59,770.56 632.47,770.78 632.46,771.02C632.45,771.26 632.55,771.5 632.73,771.66C636.59,775.05 640.27,776.15 643.77,774.52C646.94,773.07 649.6,770.27 651.68,766.2C653.72,762.21 654.91,758.7 655.2,755.79C655.48,752.96 655.63,750.97 655.63,749.87C655.64,746.7 655.08,743.89 653.96,741.52Z"
                    style="fill:rgb(48,43,120);fill-rule:nonzero;" />
                <path
                    d="M787.47,747.35C788.07,745.82 788.37,744.36 788.37,743.01C788.37,741.89 788.12,740.82 787.61,739.8C786.53,737.84 784.99,736.35 783.03,735.37C781.08,734.39 779.42,733.92 777.96,733.92C771.85,733.92 765.89,740.17 759.72,753.02C755.39,762 751.51,772.27 748.19,783.55L746.74,788.49C746.38,786.34 746.2,784.11 746.2,781.8C746.2,779.02 746.45,776.12 746.94,773.18C748.05,766.36 749.7,760.1 751.84,754.56C753.95,749.08 755.81,745.51 757.35,743.97C757.52,743.8 757.61,743.56 757.58,743.33C757.56,743.09 757.43,742.88 757.24,742.74C754.9,741.12 752.31,739.97 749.52,739.32C746.77,738.68 744.43,738.36 742.56,738.36C741.08,738.36 739.64,738.49 738.26,738.75C734.87,739.43 732.4,741.35 730.89,744.52C728.54,750.42 727.35,757.93 727.35,766.87L727.44,770.83C727.47,771.55 727.53,772.26 727.57,772.97C726.79,774.33 725.85,775.94 724.72,777.83C717.52,790.1 713.3,792.68 711.02,792.68C710.43,792.68 710.13,791.94 710.13,790.48C710.13,789.46 710.28,788.11 710.58,786.5C711.45,782.23 712.99,777.07 715.16,771.18C717.33,765.28 719.7,759.6 722.19,754.3C724.67,749.04 726.86,745.09 728.7,742.57C728.83,742.39 728.88,742.17 728.84,741.95C728.8,741.73 728.68,741.54 728.5,741.42C726.11,739.8 723.48,738.67 720.69,738.05C717.94,737.44 715.64,737.14 713.83,737.14C712.16,737.14 710.49,737.3 708.86,737.63C705.35,738.37 702.82,740.29 701.32,743.37L700.43,745.36C698.58,739.03 693.76,735.82 686.05,735.82C680.56,735.82 675.64,737.44 671.44,740.65C667.29,743.81 663.85,747.91 661.24,752.82C658.64,757.71 656.96,762.27 656.26,766.38C655.57,770.46 655.21,773.78 655.21,776.26C655.21,784.97 657.44,791.74 661.82,796.39C664.85,799.69 669.07,801.36 674.37,801.36C677.41,801.36 680.54,800.27 683.68,798.11C686.28,796.32 688.7,793.88 690.88,790.83C692.2,798.84 696.59,803.3 704.03,804.09L704.41,804.09C708.29,804.09 712.39,802.28 716.61,798.72C720.74,795.23 724.36,790.75 727.38,785.42C727.9,784.5 728.37,783.57 728.82,782.65C730.1,788.83 732.23,794.59 735.2,799.91C735.99,800.98 737.45,801.95 739.69,802.86C741.82,803.73 743.72,804.26 745.33,804.42C746.95,804.58 747.98,804.66 748.57,804.66C750.37,804.66 751.99,804.35 753.41,803.75C753.68,803.63 753.87,803.37 753.9,803.07C754.14,800.02 755.25,795.5 757.2,789.66C759.16,783.79 761.74,777.58 764.88,771.22C768,764.88 771.54,759.4 775.4,754.92C779.16,750.56 782.98,748.2 786.76,747.9C787.09,747.83 787.35,747.63 787.47,747.35ZM677.1,790.65C676.92,788.88 676.82,787.54 676.82,786.69C676.82,784.43 677.1,781.79 677.65,778.84C678.45,774.77 679.66,770.61 681.24,766.45C682.81,762.33 684.59,758.82 686.52,756.03C688.33,753.42 690.16,751.94 691.97,751.63C692.69,751.68 694.51,751.96 694.51,756.47C694.51,760.7 693.6,765.84 691.82,771.76C690.09,777.32 688.01,782.25 685.63,786.42C683.41,790.31 681.28,792.47 679.47,792.65C677.95,792.64 677.24,792.04 677.1,790.65Z"
                    style="fill:rgb(48,43,120);fill-rule:nonzero;" />
                <path
                    d="M861.75,757.91C865.05,748.72 868.37,740.21 871.62,732.63C874.85,725.09 877.19,720.25 878.6,718.23C878.72,718.05 878.77,717.83 878.73,717.62C878.69,717.41 878.56,717.22 878.38,717.1C876.05,715.55 873.42,714.43 870.58,713.78C867.76,713.14 865.36,712.82 863.43,712.82C861.88,712.82 860.31,712.98 858.74,713.31C855.23,714.05 852.7,715.97 851.19,719.07C846.62,730.28 842.59,742.15 839.2,754.37C837.07,762.13 835.66,769.1 834.93,775.22C833.32,778 831.4,781.06 829.16,784.4C826.5,787.91 823.77,790.26 821.07,791.39C817.25,792.98 814.44,793.44 812.54,792.87C809.12,791.77 807.25,790.01 806.83,787.48C806.37,784.71 806.14,782.57 806.14,781.12C806.14,778.65 806.46,776 807.1,773.2C808.1,773.96 809.38,774.39 810.93,774.49C812.87,774.62 814.02,774.68 814.37,774.68C817.71,774.68 821.17,773.63 824.67,771.55C828.6,769.19 831.45,764.72 833.14,758.23C833.47,756.73 833.63,755.25 833.63,753.82C833.63,751.73 833.27,749.64 832.55,747.63C831.37,744.22 829.23,741.37 826.19,739.15C823.14,736.92 819.29,735.79 814.75,735.79C809.58,735.79 804.93,737.22 800.92,740.03C796.95,742.81 793.61,746.46 790.99,750.87C788.39,755.25 786.54,759.75 785.48,764.23C784.44,768.69 783.91,772.83 783.91,776.51C783.91,782.9 785.21,788.42 787.8,792.95C790.6,797.37 794.03,800.17 798.01,801.25C801.86,802.3 805.24,802.83 808.06,802.83C810.37,802.83 812.74,802.57 815.11,802.06C820.37,800.84 824.9,798.5 828.58,795.07C830.76,792.94 832.75,790.46 834.54,787.7C834.77,790.51 835.25,793.1 836.01,795.41C837.74,800.54 841.42,803.45 847.04,804.06L847.42,804.06C851.3,804.06 855.4,802.25 859.62,798.69C863.75,795.2 867.37,790.72 870.39,785.39C873.41,780.04 875.17,774.67 875.62,769.37C875.62,767.71 874.72,767.53 874.34,767.53C873.54,767.53 872.91,768.3 872.03,770.3C867.31,778.81 863.23,785.06 859.9,788.88C857.62,791.39 855.64,792.66 854,792.66C853.19,792.66 853.02,791.21 853.02,789.99C853.02,788.12 853.42,785.49 854.22,782.18C855.92,775.26 858.45,767.1 861.75,757.91ZM809.37,766.06C809.67,765.21 810.02,764.38 810.43,763.57C811.9,760.15 813.59,757.3 815.48,755.12C817.28,753.03 819.01,751.85 820.48,751.63C821.48,751.68 822.08,752.14 822.44,753.13C822.88,754.32 823.1,755.38 823.1,756.29C823.1,759.72 821.69,762.27 818.76,764.09C816.71,765.44 813.95,766.12 810.56,766.12L809.37,766.06Z"
                    style="fill:rgb(48,43,120);fill-rule:nonzero;" />
            </g>
        </g>
    </g>
</svg>
