<svg xmlns="http://www.w3.org/2000/svg" width="18.175" height="19.643" viewBox="0 0 18.175 19.643">
  <g id="logout" transform="translate(0.749 1.061)">
    <path id="Path_6976" data-name="Path 6976" d="M427,732.75v4.632h16.675V732.75" transform="translate(-426.999 -719.549)" fill="none" stroke="#b9346e" stroke-linecap="round" stroke-linejoin="round" stroke-width="1.5"/>
    <g id="Group_176" data-name="Group 176" transform="translate(2.085)">
      <path id="Path_6977" data-name="Path 6977" d="M444.929,717.219l-.043-12.969,6.306,6.039" transform="translate(-438.686 -704.25)" fill="none" stroke="#b9346e" stroke-linecap="round" stroke-linejoin="round" stroke-width="1.5"/>
      <line id="Line_29" data-name="Line 29" x1="6.2" y2="6.027" fill="none" stroke="#b9346e" stroke-linecap="round" stroke-linejoin="round" stroke-width="1.5"/>
    </g>
  </g>
</svg>
